<svg xmlns="http://www.w3.org/2000/svg" width="6.937" height="7.91" viewBox="0 0 6.937 7.91">
  <defs>
    <style>
      .cls-1 {
        fill-rule: evenodd;
      }
    </style>
  </defs>
  <path id="多角形_3" data-name="多角形 3" class="cls-1" d="M911.113,6849.62l-6.931,3.78,0.193-7.89Z" transform="translate(-904.188 -6845.5)"/>
</svg>
