<?xml version="1.0" encoding="utf-8"?>
<!-- Generator: Adobe Illustrator 22.0.1, SVG Export Plug-In . SVG Version: 6.00 Build 0)  -->
<svg version="1.1" id="レイヤー_1" xmlns="http://www.w3.org/2000/svg" xmlns:xlink="http://www.w3.org/1999/xlink" x="0px"
	 y="0px" viewBox="0 0 300.9 36" style="enable-background:new 0 0 300.9 36;" xml:space="preserve">
<style type="text/css">
	.st0{fill:#EA0029;}
	.st1{fill:#1B2C56;}
	.st2{fill:#FFFFFF;}
</style>
<g>
	<path class="st2" d="M50.3,5.3H55v11.7c0,1.5,0.3,2.6,0.9,3.4c0.6,0.8,1.5,1.2,2.8,1.2c1.2,0,2.1-0.4,2.7-1.2
		c0.5-0.8,0.8-1.8,0.8-3.1V5.3H67V17c0,5.5-2.7,8.2-8.2,8.2c-2.6,0-4.7-0.7-6.2-2.1c-1.5-1.4-2.3-3.5-2.3-6.3V5.3z"/>
	<polygon class="st2" points="69.5,24.9 69.5,5.3 74.2,5.3 74.2,13.4 80.4,5.3 86.3,5.3 79.3,13.8 86.9,24.9 81.1,24.9 75.8,16.7 
		74.2,18.5 74.2,24.9 	"/>
	<rect x="50.3" y="27.4" class="st2" width="36.6" height="5"/>
	<path class="st2" d="M104.3,27.9c1.3,0,2.4-0.1,3.3-0.3c0.9-0.2,1.6-0.5,2.2-0.9l1.3,4.7c-0.6,0.3-1.5,0.7-2.8,1
		c-1.3,0.3-2.9,0.5-4.7,0.5c-2.1,0-4.1-0.3-5.9-1c-1.8-0.7-3.3-1.6-4.6-2.8c-1.3-1.2-2.2-2.7-3-4.4c-0.7-1.7-1.1-3.7-1.1-5.8
		c0-2.1,0.3-4,1-5.8c0.7-1.7,1.6-3.2,2.9-4.4c1.2-1.2,2.8-2.2,4.6-2.8s3.8-1,6.1-1c1.9,0,3.4,0.2,4.6,0.5c1.2,0.4,2.1,0.7,2.8,1.1
		l-1.5,4.8c-0.7-0.4-1.4-0.7-2.3-1c-0.9-0.3-1.9-0.4-3-0.4c-1.1,0-2.2,0.2-3.2,0.5c-1,0.3-1.9,0.9-2.6,1.6c-0.7,0.7-1.3,1.6-1.8,2.8
		c-0.4,1.1-0.6,2.5-0.6,4.2c0,1.5,0.2,2.9,0.6,4c0.4,1.1,1,2.1,1.7,2.9c0.7,0.8,1.6,1.3,2.6,1.7C102.1,27.8,103.2,27.9,104.3,27.9"
		/>
	<polygon class="st2" points="114.1,32.5 114.1,5.3 120.6,5.3 120.6,15.9 130.1,15.9 130.1,5.3 136.6,5.3 136.6,32.5 130.1,32.5 
		130.1,21 120.6,21 120.6,32.5 	"/>
	<path class="st2" d="M149,5.3h7l9.8,27.2h-6.9l-1.9-5.8h-9.1l-1.9,5.8h-6.9L149,5.3z M149.2,21.9h6.2l-1-3.3
		c-0.3-1.1-0.7-2.2-1.1-3.4c-0.4-1.2-0.7-2.3-0.9-3.3h-0.1c-0.3,1-0.6,2.1-1,3.3c-0.4,1.2-0.7,2.3-1.1,3.4L149.2,21.9z"/>
	<polygon class="st2" points="168.3,5.3 174.8,5.3 174.8,27.4 185.5,27.4 185.5,32.5 168.3,32.5 	"/>
	<polygon class="st2" points="187.5,5.3 194.1,5.3 194.1,27.4 204.8,27.4 204.8,32.5 187.5,32.5 	"/>
	<polygon class="st2" points="206.8,5.3 224.9,5.3 224.9,10.3 213.3,10.3 213.3,15.9 223.8,15.9 223.8,20.8 213.3,20.8 213.3,27.5 
		225,27.5 225,32.5 206.8,32.5 	"/>
	<path class="st2" d="M228.2,5.3h6l5.9,9.1c1.1,1.6,2.1,3.3,3.1,5c1,1.7,1.8,3.3,2.3,4.6h0.1c-0.1-1.7-0.2-3.5-0.3-5.2
		c0-1.7,0-3.5,0-5.2V5.3h6v27.2h-6l-6.3-9.3c-1-1.5-2-3.1-2.8-4.7c-0.9-1.6-1.6-3.2-2.2-5H234c0.1,1.8,0.2,3.5,0.3,5.2
		c0,1.7,0,3.4,0,5.1v8.6h-6V5.3z"/>
	<path class="st2" d="M269.4,4.8c1.7,0,3.3,0.1,4.6,0.4c1.3,0.3,2.5,0.7,3.6,1.2l-1.3,4.3c-1-0.5-2-0.8-3.1-1.1
		c-1.1-0.2-2.1-0.3-3.1-0.3c-1.1,0-2.2,0.2-3.2,0.6c-1,0.4-1.9,1-2.6,1.7c-0.8,0.8-1.4,1.8-1.8,3c-0.4,1.2-0.6,2.6-0.6,4.3
		c0,3,0.7,5.4,2,7c1.3,1.6,3.3,2.4,5.8,2.4c0.6,0,1.1,0,1.6-0.1c0.5-0.1,0.9-0.1,1.1-0.3v-5.9H268v-4.8h10.6v14
		c-1.1,0.5-2.4,0.9-4,1.2c-1.5,0.3-3.2,0.5-5.1,0.5c-2.1,0-4-0.3-5.8-0.9c-1.8-0.6-3.3-1.5-4.6-2.7c-1.3-1.2-2.4-2.7-3.1-4.4
		c-0.7-1.7-1.1-3.7-1.1-6s0.4-4.3,1.1-6.1c0.7-1.8,1.8-3.2,3.1-4.4c1.3-1.2,2.9-2.1,4.6-2.7C265.5,5.1,267.4,4.8,269.4,4.8"/>
	<polygon class="st2" points="282.4,5.3 300.5,5.3 300.5,10.3 288.9,10.3 288.9,15.9 299.4,15.9 299.4,20.8 288.9,20.8 288.9,27.5 
		300.6,27.5 300.6,32.5 282.4,32.5 	"/>
	<path class="st2" d="M41.1,18.8c-0.9-0.2-2.7-0.4-4.4,0.2c-0.2,0.1-0.5,0.1-0.7,0c-0.4-0.2-1.1-0.4-2.1-0.2c-0.1,0-0.2,0.2-0.1,0.3
		c0.3,0.4,0.5,1.3-1.3,2.2c-0.4,0.2-0.8,0.4-1.2,0.6v3.9c2.9-1.1,5.3-2.6,6.8-4.4c0.9-1.1,2.3-1.9,3-2.2
		C41.3,19.1,41.3,18.9,41.1,18.8"/>
	<path class="st2" d="M19.8,27.7C19.8,27.7,19.7,27.7,19.8,27.7c-0.1,0.9-0.2,1.5-0.3,1.8c0,0.1,0.1,0.3,0.2,0.2
		c0.6-0.1,0.9-0.3,1.2-0.5c0.2-0.1,0.4-0.1,0.6,0c0.7,0.8,1.6,1.2,2.4,1.4c0.3-0.1,0.5-0.2,0.8-0.3c-0.7-0.8-0.9-1.9-1-2.8
		C22.4,27.7,21.1,27.7,19.8,27.7"/>
	<path class="st2" d="M31.3,4.5c0-1.1,0.1-2.6,1.2-3.7c0.1-0.1,0-0.3-0.2-0.3c-0.8,0.1-2.2,0.4-3.2,1.6c-0.1,0.2-0.4,0.2-0.6,0
		c-0.2-0.2-0.6-0.4-1.2-0.5c-0.1,0-0.2,0.1-0.2,0.2c0.1,0.4,0.3,1.3,0.3,2.7v1c1.3,0.3,2.6,0.7,3.8,1.1V4.5z"/>
	<path class="st2" d="M19.8,23.9L19.8,23.9c1.3,0,2.5-0.1,3.8-0.2v0C22.3,23.8,21,23.9,19.8,23.9"/>
	<path class="st2" d="M11.9,5.6C11.9,5.6,11.8,5.6,11.9,5.6C11.8,5.6,11.9,5.6,11.9,5.6"/>
	<path class="st2" d="M12.2,1.6C11.6,1.7,11.3,2,11,2.2c-0.2,0.1-0.4,0.1-0.6,0C9.5,1,8.1,0.6,7.3,0.5C7.1,0.5,7,0.7,7.1,0.8
		c1,1,1.2,2.6,1.2,3.7v1.1c1.2-0.5,2.5-0.9,3.8-1.2c0,0,0,0,0,0c0-1.3,0.2-2.2,0.3-2.6C12.4,1.7,12.3,1.6,12.2,1.6"/>
	<path class="st2" d="M26.3,23.3C26.3,23.3,26.3,23.3,26.3,23.3C26.3,23.3,26.3,23.3,26.3,23.3L26.3,23.3z"/>
	<path class="st2" d="M26.3,23.3L26.3,23.3C26.4,23.3,26.4,23.3,26.3,23.3"/>
	<path class="st2" d="M26.3,23.3c-0.4,0.1-1.6,0.3-2.7,0.4c-1.3,0.1-2.6,0.2-3.8,0.2c-2.8,0-5.4-0.3-7.7-1v3.3c0,0,0,0.3,0.1,0.7
		c2.3,0.5,4.9,0.8,7.5,0.8c0,0,0,0,0,0c1.3,0,2.6-0.1,3.8-0.2v0c0.9-0.1,1.7-0.2,2.5-0.4c0.2-0.5,0.2-0.9,0.2-0.9L26.3,23.3
		C26.1,23.3,26.1,23.3,26.3,23.3"/>
	<path class="st2" d="M12.1,5.6c-1.4,0.3-2.7,0.7-3.8,1.2c-4.7,2-7.7,5.2-7.7,9.4c0,3.8,2.5,6.9,6.6,8.9v-4.4
		c-1.8-1.3-2.7-2.8-2.7-4.5c0-2,1.2-3.7,3.7-5.1c0,0,0.1-0.1,0.1-0.1c1.1-0.6,2.4-1.1,3.8-1.5c2.3-0.6,4.9-1,7.7-1V4.7
		C17,4.7,14.4,5,12.1,5.6"/>
	<path class="st2" d="M31.3,11.8c-1.1-0.5-2.4-0.9-3.8-1.3V23v3.2c0,0,0,0.3-0.1,0.7c-0.2,0.9-0.8,2.4-2.7,3.4
		c-0.2,0.1-0.5,0.2-0.8,0.3c-1,0.4-2.4,0.6-4.1,0.6c-5.9,0-7.3-3.1-7.6-4.5c-0.1-0.4-0.1-0.7-0.1-0.7v-9.6v-3.8V9.5
		c-1.4,0.4-2.7,0.9-3.8,1.5v10.3v4.3v0.6c0,0,0,8.9,11.5,8.9c11.5,0,11.5-8.9,11.5-8.9v-0.4v-3.9V11.8z"/>
	<path class="st2" d="M41.1,13.3c-0.7-0.3-2.2-1.1-3-2.2c-1.5-1.8-3.9-3.3-6.8-4.4c-1.2-0.4-2.5-0.8-3.8-1.1
		c-0.9-0.2-1.8-0.4-2.7-0.5v3.9c0.1,0,0.1,0,0,0c0,0-0.1,0-0.1,0c1,0.1,1.9,0.3,2.8,0.5c1.4,0.3,2.7,0.7,3.8,1.2
		c0.4,0.2,0.8,0.4,1.2,0.6c1.8,1,1.5,1.8,1.3,2.2c-0.1,0.1,0,0.3,0.1,0.3c1,0.1,1.7-0.1,2.1-0.2c0.2-0.1,0.5-0.1,0.7,0
		c1.7,0.6,3.5,0.4,4.4,0.2C41.3,13.6,41.3,13.3,41.1,13.3"/>
	<path class="st2" d="M23.6,4.9V4.5c0-1.1,0.1-2.6,1.2-3.7c0.1-0.1,0-0.3-0.2-0.3c-0.8,0.1-2.2,0.4-3.2,1.6c-0.1,0.2-0.4,0.2-0.6,0
		c-0.2-0.2-0.6-0.4-1.2-0.5c-0.1,0-0.2,0.1-0.2,0.2c0.1,0.4,0.3,1.3,0.3,2.7v0.2v3.8v3.8c0,0.3-0.2,0.5-0.5,0.5h-7.2v3.8h7.2
		c0.3,0,0.5,0.2,0.5,0.5v5.7c1.3,0,2.6-0.1,3.8-0.2v-5.2c0,0,0-1.9-1.5-2.7c1.5-0.7,1.5-2.7,1.5-2.7V8.8c0,0-0.1,0-0.1,0
		c0,0,0.1,0,0.1,0V4.9z"/>
</g>
</svg>
