<?xml version="1.0" encoding="utf-8"?>
<!-- Generator: Adobe Illustrator 22.0.1, SVG Export Plug-In . SVG Version: 6.00 Build 0)  -->
<svg version="1.1" id="レイヤー_1" xmlns="http://www.w3.org/2000/svg" xmlns:xlink="http://www.w3.org/1999/xlink" x="0px"
	 y="0px" viewBox="0 0 23 23" style="enable-background:new 0 0 23 23;" xml:space="preserve">
<style type="text/css">
	.st0{fill:#FFFFFF;}
</style>
<g>
	<path class="st0" d="M16.1,1H6.8C3.3,1,0.5,3.8,0.5,7.2v9.6c0,3.4,2.8,6.2,6.3,6.2h9.4c3.5,0,6.3-2.8,6.3-6.2V7.2
		C22.5,3.8,19.6,1,16.1,1z M2.7,7.2c0-2.2,1.8-4,4.1-4h9.4c2.2,0,4.1,1.8,4.1,4v9.6c0,2.2-1.8,4-4.1,4H6.8c-2.2,0-4.1-1.8-4.1-4V7.2
		z"/>
	<path class="st0" d="M11.5,17.7c3.2,0,5.8-2.5,5.8-5.7s-2.6-5.7-5.8-5.7c-3.2,0-5.8,2.5-5.8,5.7S8.3,17.7,11.5,17.7z M11.5,8.1
		c2.2,0,4,1.7,4,3.9s-1.8,3.9-4,3.9c-2.2,0-4-1.7-4-3.9S9.3,8.1,11.5,8.1z"/>
	<path class="st0" d="M17.4,7.4c0.7,0,1.3-0.6,1.3-1.3c0-0.7-0.6-1.3-1.3-1.3c-0.7,0-1.3,0.6-1.3,1.3C16.1,6.9,16.7,7.4,17.4,7.4z"
		/>
</g>
</svg>
